0.175	0.15	0.2	1115.0	+1.0	-1.0	+147.0	-147.0
0.225	0.2	0.25	911.5	+0.6	-0.6	+101.8	-101.8
0.275	0.25	0.3	736.6	+0.5	-0.5	+72.7	-72.7
0.325	0.3	0.35	592.0	+0.4	-0.4	+53.3	-53.3
0.375	0.35	0.4	475.0	+0.3	-0.3	+40.6	-40.6
0.425	0.4	0.45	386.4	+0.3	-0.3	+32.5	-32.5
0.475	0.45	0.5	315.0	+0.2	-0.2	+26.2	-26.2
0.525	0.5	0.55	259.3	+0.2	-0.2	+21.5	-21.5
0.575	0.55	0.6	215.0	+0.2	-0.2	+17.8	-17.8
0.625	0.6	0.65	179.4	+0.1	-0.1	+14.8	-14.8
0.675	0.65	0.7	150.2	+0.1	-0.1	+12.3	-12.3
0.725	0.7	0.75	126.5	+0.1	-0.1	+10.3	-10.3
0.775	0.75	0.8	107.0	+0.1	-0.1	+8.7	-8.7
0.825	0.8	0.85	90.89	+0.1	-0.1	+7.39	-7.39
0.875	0.85	0.9	77.73	+0.09	-0.09	+6.31	-6.31
0.925	0.9	0.95	66.73	+0.08	-0.08	+5.42	-5.42
0.975	0.95	1.0	57.11	+0.08	-0.08	+4.63	-4.63
1.05	1.0	1.1	45.6	+0.05	-0.05	+3.7	-3.7
1.15	1.1	1.2	34.1	+0.04	-0.04	+2.77	-2.77
1.25	1.2	1.3	25.8	+0.03	-0.03	+2.11	-2.11
1.35	1.3	1.4	19.43	+0.02	-0.02	+1.59	-1.59
1.45	1.4	1.5	14.75	+0.02	-0.02	+1.21	-1.21
1.55	1.5	1.6	11.25	+0.01	-0.01	+0.95	-0.95
1.65	1.6	1.7	8.69	+0.013	-0.013	+0.734	-0.734
1.75	1.7	1.8	6.718	+0.01	-0.01	+0.567	-0.567
1.85	1.8	1.9	5.288	+0.009	-0.009	+0.446	-0.446
1.95	1.9	2.0	4.118	+0.007	-0.007	+0.347	-0.347
2.1	2.0	2.2	2.873	+0.003	-0.003	+0.241	-0.241
2.3	2.2	2.4	1.773	+0.002	-0.002	+0.148	-0.148
2.5	2.4	2.6	1.105	+0.001	-0.001	+0.092	-0.092
2.7	2.6	2.8	0.698	+9.0E-4	-9.0E-4	+0.058	-0.058
2.9	2.8	3.0	0.4454	+6.0E-4	-6.0E-4	+0.0369	-0.0369
3.1	3.0	3.2	0.2865	+7.0E-4	-7.0E-4	+0.0236	-0.0236
3.3	3.2	3.4	0.1874	+4.0E-4	-4.0E-4	+0.0154	-0.0154
3.5	3.4	3.6	0.124	+3.0E-4	-3.0E-4	+0.0102	-0.0102
3.7	3.6	3.8	0.08371	+2.1E-4	-2.1E-4	+0.00683	-0.00683
3.9	3.8	4.0	0.05689	+1.5E-4	-1.5E-4	+0.00462	-0.00462
4.25	4.0	4.5	0.03057	+9.0E-5	-9.0E-5	+0.00247	-0.00247
4.75	4.5	5.0	0.01346	+4.0E-5	-4.0E-5	+0.00109	-0.00109
5.25	5.0	5.5	0.00657	+2.3E-5	-2.3E-5	+5.32E-4	-5.32E-4
5.75	5.5	6.0	0.003489	+1.4E-5	-1.4E-5	+2.82E-4	-2.82E-4
6.25	6.0	6.5	0.002004	+9.0E-6	-9.0E-6	+1.62E-4	-1.62E-4
6.75	6.5	7.0	0.001222	+7.0E-6	-7.0E-6	+9.9E-5	-9.9E-5
7.5	7.0	8.0	6.46E-4	+3.3E-6	-3.3E-6	+5.23E-5	-5.23E-5
8.5	8.0	9.0	3.042E-4	+2.0E-6	-2.0E-6	+2.46E-5	-2.46E-5
9.5	9.0	10.0	1.561E-4	+1.3E-6	-1.3E-6	+1.27E-5	-1.27E-5
10.5	10.0	11.0	8.796E-5	+9.1E-7	-9.1E-7	+7.18E-6	-7.18E-6
11.5	11.0	12.0	5.246E-5	+6.6E-7	-6.6E-7	+4.29E-6	-4.29E-6
12.5	12.0	13.0	3.253E-5	+5.0E-7	-5.0E-7	+2.68E-6	-2.68E-6
13.5	13.0	14.0	2.025E-5	+3.8E-7	-3.8E-7	+1.68E-6	-1.68E-6
14.5	14.0	15.0	1.355E-5	+3.0E-7	-3.0E-7	+1.13E-6	-1.13E-6
15.5	15.0	16.0	9.35E-6	+2.37E-7	-2.37E-7	+7.84E-7	-7.84E-7
17.0	16.0	18.0	5.502E-6	+1.23E-7	-1.23E-7	+4.65E-7	-4.65E-7
19.0	18.0	20.0	2.896E-6	+8.4E-8	-8.4E-8	+2.46E-7	-2.46E-7
21.0	20.0	22.0	1.726E-6	+6.2E-8	-6.2E-8	+1.47E-7	-1.47E-7
23.0	22.0	24.0	9.364E-7	+4.33E-8	-4.33E-8	+8.26E-8	-8.26E-8
25.0	24.0	26.0	5.683E-7	+3.23E-8	-3.23E-8	+5.23E-8	-5.23E-8
27.0	26.0	28.0	3.861E-7	+2.56E-8	-2.56E-8	+3.57E-8	-3.57E-8
29.0	28.0	30.0	2.517E-7	+1.99E-8	-1.99E-8	+2.34E-8	-2.34E-8
31.0	30.0	32.0	1.542E-7	+1.5E-8	-1.5E-8	+1.45E-8	-1.45E-8
33.0	32.0	34.0	1.018E-7	+1.18E-8	-1.18E-8	+9.6E-9	-9.6E-9
35.0	34.0	36.0	8.667E-8	+1.059E-8	-1.059E-8	+8.25E-9	-8.25E-9
38.0	36.0	40.0	4.864E-8	+5.37E-9	-5.37E-9	+4.65E-9	-4.65E-9
42.5	40.0	45.0	2.57E-8	+3.29E-9	-3.29E-9	+2.47E-9	-2.47E-9
47.5	45.0	50.0	1.308E-8	+2.21E-9	-2.21E-9	+1.27E-9	-1.27E-9
